{
  "project_info": {
    "project_number": "698765250833",
    "project_id": "domnet-30fe3",
    "storage_bucket": "domnet-30fe3.appspot.com"
  },
  "client": [
    {
      "client_info": {
        "mobilesdk_app_id": "1:698765250833:android:4aa1465301b0e1128dbcb0",
        "android_client_info": {
          "package_name": "com.example.dom_n_net"
        }
      },
      "oauth_client": [
        {
          "client_id": "698765250833-gq91foq8rsohsmvvhli7h1gl83o0c7p1.apps.googleusercontent.com",
          "client_type": 3
        }
      ],
      "api_key": [
        {
          "current_key": "AIzaSyA7HtsFqGz3U0IdcjjCQbUkyUGk6KLJXck"
        }
      ],
      "services": {
        "appinvite_service": {
          "other_platform_oauth_client": [
            {
              "client_id": "698765250833-gq91foq8rsohsmvvhli7h1gl83o0c7p1.apps.googleusercontent.com",
              "client_type": 3
            }
          ]
        }
      }
    }
  ],
  "configuration_version": "1"
}